{
    "Name" : "Absorb",
    "Type" : "Grass",
    "Category" : "Special",
    "PPStart" : 25,
    "PPMax" : 40,
    "Accuracy" : 100,
    "Power" : 2,
    "PointCost" : 3,
    "Requirements" : ["Level 1 or higher"],
    "Description" : "A nutrient-draining attack. The user's Health is restored by half the damage taken by the target (Rounded up)."
}