{
    "Name" : "Tar Shot",
    "Type" : "Rock",
    "Category" : "Status",
    "PPStart" : 15,
    "PPMax" : 24,
    "Accuracy" : 100,
    "Power" : "n/a",
    "PointCost" : 4,
    "Requirements" : ["Evolution Three"],
    "Description" : "The user pours sticky tar over the target, lowering the target's Speed IV by one point. Fire Moves become Super Effective on the target until it takes a short break." 
}